module bitbucket.org/VladimirCunichin/proxy

go 1.17

require (
	github.com/gorilla/mux v1.8.0
	github.com/spf13/viper v1.9.0
	github.com/stretchr/testify v1.7.0
	go.uber.org/zap v1.19.1
)

require (
	github.com/KyleBanks/depth v1.2.1 // indirect
	github.com/PuerkitoBio/purell v1.1.1 // indirect
	github.com/PuerkitoBio/urlesc v0.0.0-20170810143723-de5bf2ad4578 // indirect
	github.com/asaskevich/govalidator v0.0.0-20210307081110-f21760c49a8d // indirect
	github.com/davecgh/go-spew v1.1.1 // indirect
	github.com/docker/go-units v0.4.0 // indirect
	github.com/fsnotify/fsnotify v1.5.1 // indirect
	github.com/go-openapi/analysis v0.21.1 // indirect
	github.com/go-openapi/jsonpointer v0.19.5 // indirect
	github.com/go-openapi/jsonreference v0.19.6 // indirect
	github.com/go-stack/stack v1.8.1 // indirect
	github.com/hashicorp/hcl v1.0.0 // indirect
	github.com/jackc/chunkreader/v2 v2.0.1 // indirect
	github.com/jackc/pgconn v1.10.0 // indirect
	github.com/jackc/pgio v1.0.0 // indirect
	github.com/jackc/pgpassfile v1.0.0 // indirect
	github.com/jackc/pgproto3/v2 v2.1.1 // indirect
	github.com/jackc/pgservicefile v0.0.0-20200714003250-2b9c44734f2b // indirect
	github.com/jackc/pgtype v1.8.1 // indirect
	github.com/jackc/pgx/v4 v4.13.0 // indirect
	github.com/jinzhu/inflection v1.0.0 // indirect
	github.com/jinzhu/now v1.1.2 // indirect
	github.com/josharian/intern v1.0.0 // indirect
	github.com/lib/pq v1.10.4 // indirect
	github.com/magiconair/properties v1.8.5 // indirect
	github.com/mailru/easyjson v0.7.7 // indirect
	github.com/mitchellh/mapstructure v1.4.2 // indirect
	github.com/oklog/ulid v1.3.1 // indirect
	github.com/pelletier/go-toml v1.9.4 // indirect
	github.com/pmezard/go-difflib v1.0.0 // indirect
	github.com/spf13/afero v1.6.0 // indirect
	github.com/spf13/cast v1.4.1 // indirect
	github.com/spf13/jwalterweatherman v1.1.0 // indirect
	github.com/spf13/pflag v1.0.5 // indirect
	github.com/subosito/gotenv v1.2.0 // indirect
	github.com/swaggo/files v0.0.0-20190704085106-630677cd5c14 // indirect
	go.mongodb.org/mongo-driver v1.8.0 // indirect
	go.uber.org/atomic v1.7.0 // indirect
	go.uber.org/multierr v1.6.0 // indirect
	golang.org/x/crypto v0.0.0-20210921155107-089bfa567519 // indirect
	golang.org/x/sys v0.0.0-20211123173158-ef496fb156ab // indirect
	golang.org/x/text v0.3.7 // indirect
	golang.org/x/tools v0.1.7 // indirect
	gopkg.in/ini.v1 v1.63.2 // indirect
	gopkg.in/yaml.v2 v2.4.0 // indirect
	gopkg.in/yaml.v3 v3.0.0-20210107192922-496545a6307b // indirect
)

require (
	github.com/go-openapi/errors v0.20.1
	github.com/go-openapi/loads v0.21.0
	github.com/go-openapi/runtime v0.21.0
	github.com/go-openapi/spec v0.20.4
	github.com/go-openapi/strfmt v0.21.1
	github.com/go-openapi/swag v0.19.15
	github.com/go-openapi/validate v0.20.3
	github.com/jessevdk/go-flags v1.5.0
	github.com/pkg/errors v0.9.1
	github.com/satori/go.uuid v1.2.0
	github.com/swaggo/http-swagger v1.1.2
	github.com/swaggo/swag v1.7.4
	golang.org/x/net v0.0.0-20211123203042-d83791d6bcd9
	gorm.io/driver/postgres v1.2.2
	gorm.io/gorm v1.22.3
)
